Rental - Car Type Api: October 21, 2017, 11:19 am
Response: Array
(
    [0] => Array
        (
            [car_type_id] => 2
            [car_type_name] => STANDARD
            [car_type_image] => uploads/car/editcar_2.jpg
            [city_id] => 121
            [base_fare] => 6 Per 1 Km
            [ride_mode] => 1
        )

    [1] => Array
        (
            [car_type_id] => 3
            [car_type_name] => LUXURY
            [car_type_image] => uploads/car/editcar_3.jpg
            [city_id] => 121
            [base_fare] => 8 Per 1 Km
            [ride_mode] => 1
        )

    [2] => Array
        (
            [car_type_id] => 4
            [car_type_name] => MINIVAN
            [car_type_image] => uploads/car/editcar_4.jpg
            [city_id] => 121
            [base_fare] => 10 Per 1 Km
            [ride_mode] => 1
        )

    [3] => Array
        (
            [car_type_id] => 001
            [car_type_name] => Rental
            [car_type_image] => uploads/car/editcar_2.png
            [city_id] => 121
            [distance] => 
            [base_fare] => 
            [ride_mode] => 2
        )

)

city_name: Almere
latitude: 52.35401631187151
longitude: 5.1538290828466415
-------------------------
Rental - Car Type Api: October 21, 2017, 11:23 am
Response: Array
(
    [0] => Array
        (
            [car_type_id] => 2
            [car_type_name] => STANDARD
            [car_type_image] => uploads/car/editcar_2.jpg
            [city_id] => 121
            [base_fare] => 6 Per 1 Km
            [ride_mode] => 1
        )

    [1] => Array
        (
            [car_type_id] => 3
            [car_type_name] => LUXURY
            [car_type_image] => uploads/car/editcar_3.jpg
            [city_id] => 121
            [base_fare] => 8 Per 1 Km
            [ride_mode] => 1
        )

    [2] => Array
        (
            [car_type_id] => 4
            [car_type_name] => MINIVAN
            [car_type_image] => uploads/car/editcar_4.jpg
            [city_id] => 121
            [base_fare] => 10 Per 1 Km
            [ride_mode] => 1
        )

    [3] => Array
        (
            [car_type_id] => 001
            [car_type_name] => Rental
            [car_type_image] => uploads/car/editcar_2.png
            [city_id] => 121
            [distance] => 
            [base_fare] => 
            [ride_mode] => 2
        )

)

city_name: Almere
latitude: 52.354027370002676
longitude: 5.153818018734456
-------------------------
Rental - Car Type Api: October 21, 2017, 11:38 am
Response: Array
(
    [0] => Array
        (
            [car_type_id] => 2
            [car_type_name] => STANDARD
            [car_type_image] => uploads/car/editcar_2.jpg
            [city_id] => 121
            [base_fare] => 6 Per 1 Km
            [ride_mode] => 1
        )

    [1] => Array
        (
            [car_type_id] => 3
            [car_type_name] => LUXURY
            [car_type_image] => uploads/car/editcar_3.jpg
            [city_id] => 121
            [base_fare] => 8 Per 1 Km
            [ride_mode] => 1
        )

    [2] => Array
        (
            [car_type_id] => 4
            [car_type_name] => MINIVAN
            [car_type_image] => uploads/car/editcar_4.jpg
            [city_id] => 121
            [base_fare] => 10 Per 1 Km
            [ride_mode] => 1
        )

    [3] => Array
        (
            [car_type_id] => 001
            [car_type_name] => Rental
            [car_type_image] => uploads/car/editcar_2.png
            [city_id] => 121
            [distance] => 
            [base_fare] => 
            [ride_mode] => 2
        )

)

city_name: Almere
latitude: 52.3539054581097
longitude: 5.15441117705803
-------------------------
