Rental - Car Type Api: November 9, 2017, 2:47 pm
Response: Array
(
    [0] => Array
        (
            [car_type_id] => 2
            [car_type_name] => STANDARD
            [car_type_image] => uploads/car/editcar_2.jpg
            [city_id] => 56
            [base_fare] => 100 Per 4 Km
            [ride_mode] => 1
            [currency_iso_code] => EUR
            [currency_unicode] => 20AC
        )

    [1] => Array
        (
            [car_type_id] => 3
            [car_type_name] => LUXURY
            [car_type_image] => uploads/car/editcar_3.jpg
            [city_id] => 56
            [base_fare] => 100 Per 4 Km
            [ride_mode] => 1
            [currency_iso_code] => EUR
            [currency_unicode] => 20AC
        )

    [2] => Array
        (
            [car_type_id] => 4
            [car_type_name] => MINIVAN
            [car_type_image] => uploads/car/editcar_4.jpg
            [city_id] => 56
            [base_fare] => 178 Per 4 Km
            [ride_mode] => 1
            [currency_iso_code] => EUR
            [currency_unicode] => 20AC
        )

)

city_name: Gurugram
latitude: 28.4121155682043
longitude: 77.0432887578752
-------------------------
Rental - Car Type Api: November 9, 2017, 2:49 pm
Response: Array
(
    [0] => Array
        (
            [car_type_id] => 2
            [car_type_name] => STANDARD
            [car_type_image] => uploads/car/editcar_2.jpg
            [city_id] => 56
            [base_fare] => 100 Per 4 Km
            [ride_mode] => 1
            [currency_iso_code] => EUR
            [currency_unicode] => 20AC
        )

    [1] => Array
        (
            [car_type_id] => 3
            [car_type_name] => LUXURY
            [car_type_image] => uploads/car/editcar_3.jpg
            [city_id] => 56
            [base_fare] => 100 Per 4 Km
            [ride_mode] => 1
            [currency_iso_code] => EUR
            [currency_unicode] => 20AC
        )

    [2] => Array
        (
            [car_type_id] => 4
            [car_type_name] => MINIVAN
            [car_type_image] => uploads/car/editcar_4.jpg
            [city_id] => 56
            [base_fare] => 178 Per 4 Km
            [ride_mode] => 1
            [currency_iso_code] => EUR
            [currency_unicode] => 20AC
        )

)

city_name: Gurugram
latitude: 28.412033563635
longitude: 77.0433387805185
-------------------------
Rental - Car Type Api: November 9, 2017, 2:51 pm
Response: Array
(
    [0] => Array
        (
            [car_type_id] => 2
            [car_type_name] => STANDARD
            [car_type_image] => uploads/car/editcar_2.jpg
            [city_id] => 56
            [base_fare] => 100 Per 4 Km
            [ride_mode] => 1
            [currency_iso_code] => EUR
            [currency_unicode] => 20AC
        )

    [1] => Array
        (
            [car_type_id] => 3
            [car_type_name] => LUXURY
            [car_type_image] => uploads/car/editcar_3.jpg
            [city_id] => 56
            [base_fare] => 100 Per 4 Km
            [ride_mode] => 1
            [currency_iso_code] => EUR
            [currency_unicode] => 20AC
        )

    [2] => Array
        (
            [car_type_id] => 4
            [car_type_name] => MINIVAN
            [car_type_image] => uploads/car/editcar_4.jpg
            [city_id] => 56
            [base_fare] => 178 Per 4 Km
            [ride_mode] => 1
            [currency_iso_code] => EUR
            [currency_unicode] => 20AC
        )

)

city_name: Gurugram
latitude: 28.4120878370427
longitude: 77.0432617214366
-------------------------
Rental - Car Type Api: November 9, 2017, 2:51 pm
Response: Array
(
    [0] => Array
        (
            [car_type_id] => 2
            [car_type_name] => STANDARD
            [car_type_image] => uploads/car/editcar_2.jpg
            [city_id] => 56
            [base_fare] => 100 Per 4 Km
            [ride_mode] => 1
            [currency_iso_code] => EUR
            [currency_unicode] => 20AC
        )

    [1] => Array
        (
            [car_type_id] => 3
            [car_type_name] => LUXURY
            [car_type_image] => uploads/car/editcar_3.jpg
            [city_id] => 56
            [base_fare] => 100 Per 4 Km
            [ride_mode] => 1
            [currency_iso_code] => EUR
            [currency_unicode] => 20AC
        )

    [2] => Array
        (
            [car_type_id] => 4
            [car_type_name] => MINIVAN
            [car_type_image] => uploads/car/editcar_4.jpg
            [city_id] => 56
            [base_fare] => 178 Per 4 Km
            [ride_mode] => 1
            [currency_iso_code] => EUR
            [currency_unicode] => 20AC
        )

)

city_name: Gurugram
latitude: 28.4120878370427
longitude: 77.0432617214366
-------------------------
Rental - Car Type Api: November 9, 2017, 3:10 pm
Response: Array
(
    [0] => Array
        (
            [car_type_id] => 2
            [car_type_name] => STANDARD
            [car_type_image] => uploads/car/editcar_2.jpg
            [city_id] => 56
            [base_fare] => 100 Per 4 Km
            [ride_mode] => 1
            [currency_iso_code] => EUR
            [currency_unicode] => 20AC
        )

    [1] => Array
        (
            [car_type_id] => 3
            [car_type_name] => LUXURY
            [car_type_image] => uploads/car/editcar_3.jpg
            [city_id] => 56
            [base_fare] => 100 Per 4 Km
            [ride_mode] => 1
            [currency_iso_code] => EUR
            [currency_unicode] => 20AC
        )

    [2] => Array
        (
            [car_type_id] => 4
            [car_type_name] => MINIVAN
            [car_type_image] => uploads/car/editcar_4.jpg
            [city_id] => 56
            [base_fare] => 178 Per 4 Km
            [ride_mode] => 1
            [currency_iso_code] => EUR
            [currency_unicode] => 20AC
        )

)

city_name: Gurugram
latitude: 28.4120896552023
longitude: 77.0432723500552
-------------------------
Rental - Car Type Api: November 9, 2017, 5:08 pm
Response: Array
(
    [0] => Array
        (
            [car_type_id] => 2
            [car_type_name] => STANDARD
            [car_type_image] => uploads/car/editcar_2.jpg
            [city_id] => 121
            [base_fare] => 5 Per 1 Km
            [ride_mode] => 1
        )

    [1] => Array
        (
            [car_type_id] => 3
            [car_type_name] => LUXURY
            [car_type_image] => uploads/car/editcar_3.jpg
            [city_id] => 121
            [base_fare] => 8 Per 1 Km
            [ride_mode] => 1
        )

    [2] => Array
        (
            [car_type_id] => 4
            [car_type_name] => MINIVAN
            [car_type_image] => uploads/car/editcar_4.jpg
            [city_id] => 121
            [base_fare] => 10 Per 1 Km
            [ride_mode] => 1
        )

    [3] => Array
        (
            [car_type_id] => 001
            [car_type_name] => Rental
            [car_type_image] => uploads/car/editcar_2.png
            [city_id] => 121
            [distance] => 
            [base_fare] => 
            [ride_mode] => 2
        )

)

city_name: Almere
latitude: 52.353878904122304
longitude: 5.154116079211234
-------------------------
Rental - Car Type Api: November 9, 2017, 5:15 pm
Response: Array
(
    [0] => Array
        (
            [car_type_id] => 2
            [car_type_name] => STANDARD
            [car_type_image] => uploads/car/editcar_2.jpg
            [city_id] => 121
            [base_fare] => 5 Per 1 Km
            [ride_mode] => 1
        )

    [1] => Array
        (
            [car_type_id] => 3
            [car_type_name] => LUXURY
            [car_type_image] => uploads/car/editcar_3.jpg
            [city_id] => 121
            [base_fare] => 8 Per 1 Km
            [ride_mode] => 1
        )

    [2] => Array
        (
            [car_type_id] => 4
            [car_type_name] => MINIVAN
            [car_type_image] => uploads/car/editcar_4.jpg
            [city_id] => 121
            [base_fare] => 10 Per 1 Km
            [ride_mode] => 1
        )

    [3] => Array
        (
            [car_type_id] => 001
            [car_type_name] => Rental
            [car_type_image] => uploads/car/editcar_2.png
            [city_id] => 121
            [distance] => 
            [base_fare] => 
            [ride_mode] => 2
        )

)

city_name: Almere
latitude: 52.35385822124972
longitude: 5.15411239117384
-------------------------
Rental - Car Type Api: November 9, 2017, 8:18 pm
Response: Array
(
    [0] => Array
        (
            [car_type_id] => 2
            [car_type_name] => STANDARD
            [car_type_image] => uploads/car/editcar_2.jpg
            [city_id] => 121
            [base_fare] => 5 Per 1 Km
            [ride_mode] => 1
        )

    [1] => Array
        (
            [car_type_id] => 3
            [car_type_name] => LUXURY
            [car_type_image] => uploads/car/editcar_3.jpg
            [city_id] => 121
            [base_fare] => 8 Per 1 Km
            [ride_mode] => 1
        )

    [2] => Array
        (
            [car_type_id] => 4
            [car_type_name] => MINIVAN
            [car_type_image] => uploads/car/editcar_4.jpg
            [city_id] => 121
            [base_fare] => 10 Per 1 Km
            [ride_mode] => 1
        )

    [3] => Array
        (
            [car_type_id] => 001
            [car_type_name] => Rental
            [car_type_image] => uploads/car/editcar_2.png
            [city_id] => 121
            [distance] => 
            [base_fare] => 
            [ride_mode] => 2
        )

)

city_name: Almere
latitude: 52.351422284552605
longitude: 5.176163166761398
-------------------------
Rental - Car Type Api: November 9, 2017, 9:20 pm
Response: Array
(
    [0] => Array
        (
            [car_type_id] => 2
            [car_type_name] => STANDARD
            [car_type_image] => uploads/car/editcar_2.jpg
            [city_id] => 121
            [base_fare] => 5 Per 1 Km
            [ride_mode] => 1
        )

    [1] => Array
        (
            [car_type_id] => 3
            [car_type_name] => LUXURY
            [car_type_image] => uploads/car/editcar_3.jpg
            [city_id] => 121
            [base_fare] => 8 Per 1 Km
            [ride_mode] => 1
        )

    [2] => Array
        (
            [car_type_id] => 4
            [car_type_name] => MINIVAN
            [car_type_image] => uploads/car/editcar_4.jpg
            [city_id] => 121
            [base_fare] => 10 Per 1 Km
            [ride_mode] => 1
        )

    [3] => Array
        (
            [car_type_id] => 001
            [car_type_name] => Rental
            [car_type_image] => uploads/car/editcar_2.png
            [city_id] => 121
            [distance] => 
            [base_fare] => 
            [ride_mode] => 2
        )

)

city_name: Almere
latitude: 52.35142494685177
longitude: 5.176160149276256
-------------------------
