Rental - Car Type Api: October 15, 2017, 12:55 pm
Response: Array
(
    [0] => Array
        (
            [car_type_id] => 2
            [car_type_name] => STANDARD
            [car_type_image] => uploads/car/editcar_2.jpg
            [city_id] => 121
            [base_fare] => 3 Per 1 Km
            [ride_mode] => 1
        )

    [1] => Array
        (
            [car_type_id] => 3
            [car_type_name] => LUXURY
            [car_type_image] => uploads/car/editcar_3.jpg
            [city_id] => 121
            [base_fare] => 5 Per 1 Km
            [ride_mode] => 1
        )

    [2] => Array
        (
            [car_type_id] => 4
            [car_type_name] => MINIVAN
            [car_type_image] => uploads/car/editcar_4.jpg
            [city_id] => 121
            [base_fare] => 6 Per 1 Km
            [ride_mode] => 1
        )

)

city_name: Almere
latitude: 52.353878904122304
longitude: 5.154116079211234
-------------------------
Rental - Car Type Api: October 15, 2017, 3:18 pm
Response: Array
(
    [0] => Array
        (
            [car_type_id] => 2
            [car_type_name] => STANDARD
            [car_type_image] => uploads/car/editcar_2.jpg
            [city_id] => 121
            [base_fare] => 3 Per 1 Km
            [ride_mode] => 1
        )

    [1] => Array
        (
            [car_type_id] => 3
            [car_type_name] => LUXURY
            [car_type_image] => uploads/car/editcar_3.jpg
            [city_id] => 121
            [base_fare] => 5 Per 1 Km
            [ride_mode] => 1
        )

    [2] => Array
        (
            [car_type_id] => 4
            [car_type_name] => MINIVAN
            [car_type_image] => uploads/car/editcar_4.jpg
            [city_id] => 121
            [base_fare] => 6 Per 1 Km
            [ride_mode] => 1
        )

    [3] => Array
        (
            [car_type_id] => 001
            [car_type_name] => Rental
            [car_type_image] => uploads/car/editcar_2.png
            [city_id] => 121
            [distance] => 
            [base_fare] => 
            [ride_mode] => 2
        )

)

city_name: Almere
latitude: 52.35403597076941
longitude: 5.153858922421932
-------------------------
Rental - Car Type Api: October 15, 2017, 7:42 pm
Response: Array
(
    [0] => Array
        (
            [car_type_id] => 2
            [car_type_name] => STANDARD
            [car_type_image] => uploads/car/editcar_2.jpg
            [city_id] => 121
            [base_fare] => 3 Per 1 Km
            [ride_mode] => 1
        )

    [1] => Array
        (
            [car_type_id] => 3
            [car_type_name] => LUXURY
            [car_type_image] => uploads/car/editcar_3.jpg
            [city_id] => 121
            [base_fare] => 5 Per 1 Km
            [ride_mode] => 1
        )

    [2] => Array
        (
            [car_type_id] => 4
            [car_type_name] => MINIVAN
            [car_type_image] => uploads/car/editcar_4.jpg
            [city_id] => 121
            [base_fare] => 6 Per 1 Km
            [ride_mode] => 1
        )

    [3] => Array
        (
            [car_type_id] => 001
            [car_type_name] => Rental
            [car_type_image] => uploads/car/editcar_2.png
            [city_id] => 121
            [distance] => 
            [base_fare] => 
            [ride_mode] => 2
        )

)

city_name: Almere
latitude: 52.35401119236543
longitude: 5.153933353722095
-------------------------
Rental - Car Type Api: October 15, 2017, 10:53 pm
Response: Array
(
    [0] => Array
        (
            [car_type_id] => 2
            [car_type_name] => STANDARD
            [car_type_image] => uploads/car/editcar_2.jpg
            [city_id] => 121
            [base_fare] => 3 Per 1 Km
            [ride_mode] => 1
        )

    [1] => Array
        (
            [car_type_id] => 3
            [car_type_name] => LUXURY
            [car_type_image] => uploads/car/editcar_3.jpg
            [city_id] => 121
            [base_fare] => 5 Per 1 Km
            [ride_mode] => 1
        )

    [2] => Array
        (
            [car_type_id] => 4
            [car_type_name] => MINIVAN
            [car_type_image] => uploads/car/editcar_4.jpg
            [city_id] => 121
            [base_fare] => 6 Per 1 Km
            [ride_mode] => 1
        )

    [3] => Array
        (
            [car_type_id] => 001
            [car_type_name] => Rental
            [car_type_image] => uploads/car/editcar_2.png
            [city_id] => 121
            [distance] => 
            [base_fare] => 
            [ride_mode] => 2
        )

)

city_name: Almere
latitude: 52.35385822124972
longitude: 5.15411239117384
-------------------------
Rental - Car Type Api: October 15, 2017, 10:59 pm
Response: Array
(
    [0] => Array
        (
            [car_type_id] => 2
            [car_type_name] => STANDARD
            [car_type_image] => uploads/car/editcar_2.jpg
            [city_id] => 121
            [base_fare] => 3 Per 1 Km
            [ride_mode] => 1
        )

    [1] => Array
        (
            [car_type_id] => 3
            [car_type_name] => LUXURY
            [car_type_image] => uploads/car/editcar_3.jpg
            [city_id] => 121
            [base_fare] => 5 Per 1 Km
            [ride_mode] => 1
        )

    [2] => Array
        (
            [car_type_id] => 4
            [car_type_name] => MINIVAN
            [car_type_image] => uploads/car/editcar_4.jpg
            [city_id] => 121
            [base_fare] => 6 Per 1 Km
            [ride_mode] => 1
        )

    [3] => Array
        (
            [car_type_id] => 001
            [car_type_name] => Rental
            [car_type_image] => uploads/car/editcar_2.png
            [city_id] => 121
            [distance] => 
            [base_fare] => 
            [ride_mode] => 2
        )

)

city_name: Almere
latitude: 52.35385822124972
longitude: 5.15411239117384
-------------------------
