Rental - Car Type Api: October 24, 2017, 7:08 pm
Response: Array
(
    [0] => Array
        (
            [car_type_id] => 2
            [car_type_name] => STANDARD
            [car_type_image] => uploads/car/editcar_2.jpg
            [city_id] => 56
            [base_fare] => 100 Per 4 Km
            [ride_mode] => 1
            [currency_iso_code] => EUR
            [currency_unicode] => 20AC
        )

    [1] => Array
        (
            [car_type_id] => 3
            [car_type_name] => LUXURY
            [car_type_image] => uploads/car/editcar_3.jpg
            [city_id] => 56
            [base_fare] => 100 Per 4 Km
            [ride_mode] => 1
            [currency_iso_code] => EUR
            [currency_unicode] => 20AC
        )

    [2] => Array
        (
            [car_type_id] => 4
            [car_type_name] => MINIVAN
            [car_type_image] => uploads/car/editcar_4.jpg
            [city_id] => 56
            [base_fare] => 178 Per 4 Km
            [ride_mode] => 1
            [currency_iso_code] => EUR
            [currency_unicode] => 20AC
        )

)

city_name: Gurugram
latitude: 28.4120986706545
longitude: 77.0432950436454
-------------------------
Rental - Car Type Api: October 24, 2017, 7:12 pm
Response: Array
(
    [0] => Array
        (
            [car_type_id] => 2
            [car_type_name] => STANDARD
            [car_type_image] => uploads/car/editcar_2.jpg
            [city_id] => 56
            [base_fare] => 100 Per 4 Km
            [ride_mode] => 1
            [currency_iso_code] => EUR
            [currency_unicode] => 20AC
        )

    [1] => Array
        (
            [car_type_id] => 3
            [car_type_name] => LUXURY
            [car_type_image] => uploads/car/editcar_3.jpg
            [city_id] => 56
            [base_fare] => 100 Per 4 Km
            [ride_mode] => 1
            [currency_iso_code] => EUR
            [currency_unicode] => 20AC
        )

    [2] => Array
        (
            [car_type_id] => 4
            [car_type_name] => MINIVAN
            [car_type_image] => uploads/car/editcar_4.jpg
            [city_id] => 56
            [base_fare] => 178 Per 4 Km
            [ride_mode] => 1
            [currency_iso_code] => EUR
            [currency_unicode] => 20AC
        )

)

city_name: Gurugram
latitude: 28.4120986706545
longitude: 77.0432950436454
-------------------------
Rental - Car Type Api: October 24, 2017, 7:14 pm
Response: Array
(
    [0] => Array
        (
            [car_type_id] => 2
            [car_type_name] => STANDARD
            [car_type_image] => uploads/car/editcar_2.jpg
            [city_id] => 56
            [base_fare] => 100 Per 4 Km
            [ride_mode] => 1
            [currency_iso_code] => EUR
            [currency_unicode] => 20AC
        )

    [1] => Array
        (
            [car_type_id] => 3
            [car_type_name] => LUXURY
            [car_type_image] => uploads/car/editcar_3.jpg
            [city_id] => 56
            [base_fare] => 100 Per 4 Km
            [ride_mode] => 1
            [currency_iso_code] => EUR
            [currency_unicode] => 20AC
        )

    [2] => Array
        (
            [car_type_id] => 4
            [car_type_name] => MINIVAN
            [car_type_image] => uploads/car/editcar_4.jpg
            [city_id] => 56
            [base_fare] => 178 Per 4 Km
            [ride_mode] => 1
            [currency_iso_code] => EUR
            [currency_unicode] => 20AC
        )

)

city_name: Gurugram
latitude: 28.4121108604179
longitude: 77.0432596794349
-------------------------
Rental - Car Type Api: October 24, 2017, 7:18 pm
Response: Array
(
    [0] => Array
        (
            [car_type_id] => 2
            [car_type_name] => STANDARD
            [car_type_image] => uploads/car/editcar_2.jpg
            [city_id] => 56
            [base_fare] => 100 Per 4 Km
            [ride_mode] => 1
            [currency_iso_code] => EUR
            [currency_unicode] => 20AC
        )

    [1] => Array
        (
            [car_type_id] => 3
            [car_type_name] => LUXURY
            [car_type_image] => uploads/car/editcar_3.jpg
            [city_id] => 56
            [base_fare] => 100 Per 4 Km
            [ride_mode] => 1
            [currency_iso_code] => EUR
            [currency_unicode] => 20AC
        )

    [2] => Array
        (
            [car_type_id] => 4
            [car_type_name] => MINIVAN
            [car_type_image] => uploads/car/editcar_4.jpg
            [city_id] => 56
            [base_fare] => 178 Per 4 Km
            [ride_mode] => 1
            [currency_iso_code] => EUR
            [currency_unicode] => 20AC
        )

)

city_name: Gurugram
latitude: 28.412090416659
longitude: 77.0432860915216
-------------------------
Rental - Car Type Api: October 24, 2017, 7:23 pm
Response: Array
(
    [0] => Array
        (
            [car_type_id] => 2
            [car_type_name] => STANDARD
            [car_type_image] => uploads/car/editcar_2.jpg
            [city_id] => 56
            [base_fare] => 100 Per 4 Km
            [ride_mode] => 1
            [currency_iso_code] => EUR
            [currency_unicode] => 20AC
        )

    [1] => Array
        (
            [car_type_id] => 3
            [car_type_name] => LUXURY
            [car_type_image] => uploads/car/editcar_3.jpg
            [city_id] => 56
            [base_fare] => 100 Per 4 Km
            [ride_mode] => 1
            [currency_iso_code] => EUR
            [currency_unicode] => 20AC
        )

    [2] => Array
        (
            [car_type_id] => 4
            [car_type_name] => MINIVAN
            [car_type_image] => uploads/car/editcar_4.jpg
            [city_id] => 56
            [base_fare] => 178 Per 4 Km
            [ride_mode] => 1
            [currency_iso_code] => EUR
            [currency_unicode] => 20AC
        )

)

city_name: Gurugram
latitude: 28.4123208198984
longitude: 77.04342003911734
-------------------------
Rental - Car Type Api: October 24, 2017, 7:38 pm
Response: Array
(
    [0] => Array
        (
            [car_type_id] => 2
            [car_type_name] => STANDARD
            [car_type_image] => uploads/car/editcar_2.jpg
            [city_id] => 56
            [base_fare] => 100 Per 4 Km
            [ride_mode] => 1
            [currency_iso_code] => EUR
            [currency_unicode] => 20AC
        )

    [1] => Array
        (
            [car_type_id] => 3
            [car_type_name] => LUXURY
            [car_type_image] => uploads/car/editcar_3.jpg
            [city_id] => 56
            [base_fare] => 100 Per 4 Km
            [ride_mode] => 1
            [currency_iso_code] => EUR
            [currency_unicode] => 20AC
        )

    [2] => Array
        (
            [car_type_id] => 4
            [car_type_name] => MINIVAN
            [car_type_image] => uploads/car/editcar_4.jpg
            [city_id] => 56
            [base_fare] => 178 Per 4 Km
            [ride_mode] => 1
            [currency_iso_code] => EUR
            [currency_unicode] => 20AC
        )

)

city_name: Gurugram
latitude: 28.412316396535257
longitude: 77.04342506825924
-------------------------
Rental - Car Type Api: October 24, 2017, 8:09 pm
Response: Array
(
    [0] => Array
        (
            [car_type_id] => 2
            [car_type_name] => STANDARD
            [car_type_image] => uploads/car/editcar_2.jpg
            [city_id] => 56
            [base_fare] => 100 Per 4 Km
            [ride_mode] => 1
            [currency_iso_code] => EUR
            [currency_unicode] => 20AC
        )

    [1] => Array
        (
            [car_type_id] => 3
            [car_type_name] => LUXURY
            [car_type_image] => uploads/car/editcar_3.jpg
            [city_id] => 56
            [base_fare] => 100 Per 4 Km
            [ride_mode] => 1
            [currency_iso_code] => EUR
            [currency_unicode] => 20AC
        )

    [2] => Array
        (
            [car_type_id] => 4
            [car_type_name] => MINIVAN
            [car_type_image] => uploads/car/editcar_4.jpg
            [city_id] => 56
            [base_fare] => 178 Per 4 Km
            [ride_mode] => 1
            [currency_iso_code] => EUR
            [currency_unicode] => 20AC
        )

)

city_name: Gurugram
latitude: 28.412330551296602
longitude: 77.0433922111988
-------------------------
Rental - Car Type Api: October 24, 2017, 8:10 pm
Response: Array
(
    [0] => Array
        (
            [car_type_id] => 2
            [car_type_name] => STANDARD
            [car_type_image] => uploads/car/editcar_2.jpg
            [city_id] => 56
            [base_fare] => 100 Per 4 Km
            [ride_mode] => 1
            [currency_iso_code] => EUR
            [currency_unicode] => 20AC
        )

    [1] => Array
        (
            [car_type_id] => 3
            [car_type_name] => LUXURY
            [car_type_image] => uploads/car/editcar_3.jpg
            [city_id] => 56
            [base_fare] => 100 Per 4 Km
            [ride_mode] => 1
            [currency_iso_code] => EUR
            [currency_unicode] => 20AC
        )

    [2] => Array
        (
            [car_type_id] => 4
            [car_type_name] => MINIVAN
            [car_type_image] => uploads/car/editcar_4.jpg
            [city_id] => 56
            [base_fare] => 178 Per 4 Km
            [ride_mode] => 1
            [currency_iso_code] => EUR
            [currency_unicode] => 20AC
        )

)

city_name: Gurugram
latitude: 28.41229221548028
longitude: 77.0434596017003
-------------------------
